<?xml version="1.0" encoding="utf-8"?>
<!-- Generator: Adobe Illustrator 18.0.0, SVG Export Plug-In . SVG Version: 6.00 Build 0)  -->
<!DOCTYPE svg PUBLIC "-//W3C//DTD SVG 1.1//EN" "http://www.w3.org/Graphics/SVG/1.1/DTD/svg11.dtd">
<svg version="1.1" id="图层_1" xmlns="http://www.w3.org/2000/svg" xmlns:xlink="http://www.w3.org/1999/xlink" x="0px" y="0px"
	 viewBox="0 0 60.9 71" enable-background="new 0 0 60.9 71" xml:space="preserve">
<rect x="0" y="0" fill="#4B994D" width="60.9" height="14.1"/>
<path fill="#323632" d="M0,16.6V71h60.9V16.6H0z M31.4,63.6H29c-2,0-3.6-1.7-3.6-3.7H35C35,62,33.4,63.6,31.4,63.6z M35,57.9v1h-9.6
	v-1H35z M25.4,56.9v-1H35v1H25.4z M35.7,51.2c0,0-0.5,1.2-0.5,1.6c-0.1,0.5-0.2,2-0.2,2h-9.5c0,0-0.1-1.7-0.2-2.3
	c-0.1-0.4-0.6-1.6-0.6-1.6c-3.8-2.1-6.4-6.3-6.4-11.2c0-7,5.5-12.7,12.3-12.7c6.8,0,12.3,5.7,12.3,12.7
	C42.7,44.8,39.8,49.2,35.7,51.2z"/>
<path fill="#323632" d="M34.2,38.5c-1.5,0-2.8,1.2-2.9,2.7h0v2h-2.2v-2h0c-0.1-1.5-1.3-2.7-2.9-2.7c-1.6,0-2.9,1.3-2.9,2.9
	c0,1.5,1.2,2.8,2.7,2.9v0h1h1.4v10.5h1.1V44.3H31v10.5h1.1V44.3h0.7h1.6v0c1.5-0.1,2.7-1.3,2.7-2.9C37.1,39.8,35.8,38.5,34.2,38.5z"
	/>
</svg>
