<?xml version="1.0" encoding="utf-8"?>
<!-- Generator: Adobe Illustrator 18.0.0, SVG Export Plug-In . SVG Version: 6.00 Build 0)  -->
<!DOCTYPE svg PUBLIC "-//W3C//DTD SVG 1.1//EN" "http://www.w3.org/Graphics/SVG/1.1/DTD/svg11.dtd">
<svg version="1.1" id="图层_1" xmlns="http://www.w3.org/2000/svg" xmlns:xlink="http://www.w3.org/1999/xlink" x="0px" y="0px"
	 viewBox="0 0 75 80" enable-background="new 0 0 75 80" xml:space="preserve">
<g>
	<path fill="#2A3033" d="M73.5,27h-2v-5l1.8-1l0,0h0v-2H43L38.4,0h0h-2h0L31.8,19H1.4v2h0l0,0l2,1.1V27h-2c-0.6,0-1,0.4-1,1v0
		c0,0.6,0.4,1,1,1h5.9c0.6,0,1-0.4,1-1v0c0-0.6-0.4-1-1-1h-2v-3.7l22.4,12.4L17.1,80h0.7h1.3h36.6h1.4h0.6L57,77.3l0,0l0,0L47,35.6
		l22.6-12.6V27h-2c-0.6,0-1,0.4-1,1v0c0,0.6,0.4,1,1,1h5.9c0.6,0,1-0.4,1-1v0C74.5,27.5,74.1,27,73.5,27z M37.4,4.1L41,19h-7.1
		L37.4,4.1z M37.4,38.7l-7.3-4.1L33.4,21h8.1l3.3,13.6L37.4,38.7z M5.5,21h25.9l-3.1,12.7L5.5,21z M49.7,58.9l-11.9,7l-12-7.1l12-7
		L49.7,58.9z M39.7,50.7l7.8-4.6l2.6,10.7L39.7,50.7z M20,76.4l3.9-16.2l11.9,7L20,76.4z M37.8,68.3L54.3,78H21.2L37.8,68.3z
		 M24.6,57.2l2.8-11.5l8.4,4.9L24.6,57.2z M39.7,67.1L51,60.5l3.7,15.4L39.7,67.1z M47,44.1l-9.3,5.5l-9.8-5.8l1.7-7.1l7.8,4.3
		l7.9-4.4L47,44.1z M43.5,21h25.8L46.5,33.6L43.5,21z"/>
	<path fill="#2A3033" d="M73.5,30h-5.9c-0.6,0-1,0.4-1,1v0c0,0.6,0.4,1,1,1h5.9c0.6,0,1-0.4,1-1v0C74.5,30.5,74.1,30,73.5,30z"/>
	<path fill="#2A3033" d="M73.5,33h-5.9c-0.6,0-1,0.4-1,1v0c0,0.6,0.4,1,1,1h5.9c0.6,0,1-0.4,1-1v0C74.5,33.5,74.1,33,73.5,33z"/>
	<path fill="#2A3033" d="M7.4,30H1.5c-0.6,0-1,0.4-1,1v0c0,0.6,0.4,1,1,1h5.9c0.6,0,1-0.4,1-1v0C8.4,30.4,7.9,30,7.4,30z"/>
	<path fill="#2A3033" d="M7.4,33H1.5c-0.6,0-1,0.4-1,1v0c0,0.6,0.4,1,1,1h5.9c0.6,0,1-0.4,1-1v0C8.4,33.4,7.9,33,7.4,33z"/>
</g>
</svg>
