<?xml version="1.0" encoding="utf-8"?>
<!-- Generator: Adobe Illustrator 18.0.0, SVG Export Plug-In . SVG Version: 6.00 Build 0)  -->
<!DOCTYPE svg PUBLIC "-//W3C//DTD SVG 1.1//EN" "http://www.w3.org/Graphics/SVG/1.1/DTD/svg11.dtd">
<svg version="1.1" id="图层_1" xmlns="http://www.w3.org/2000/svg" xmlns:xlink="http://www.w3.org/1999/xlink" x="0px" y="0px"
	 viewBox="0 0 75 80" enable-background="new 0 0 75 80" xml:space="preserve">
<g>
	<circle fill="#2A3033" cx="17.5" cy="41.1" r="2"/>
	<circle fill="#2A3033" cx="36.9" cy="60.5" r="2"/>
	<circle fill="#2A3033" cx="39.7" cy="18.8" r="2"/>
	<circle fill="#2A3033" cx="37.5" cy="40" r="2"/>
	<circle fill="#2A3033" cx="59.1" cy="38.2" r="2"/>
	<path fill="#2A3033" d="M64.7,65.8c13.7-14.5,13.7-37.2-0.1-51.6l0,0l-0.6-0.6c0,0,0,0,0,0s0,0,0,0l-0.6-0.6l0,0
		C48.9-0.9,26.2-0.9,11.7,12.8l0,0l-1.4,1.4l0,0C-3.6,28.9-3.4,52.1,11,66.5c14.4,14.4,37.6,14.6,52.3,0.7l0,0l0.7-0.7c0,0,0,0,0,0
		s0,0,0,0L64.7,65.8L64.7,65.8z M63.3,64.4L42.2,43.2l21.3-27.5C76.2,29.4,76.2,50.8,63.3,64.4z M35.2,37.2l23.5-18.4L40.3,42.3
		L16.8,60.7L35.2,37.2z M61.7,14.1L34.3,35.3L13.1,14.2C26.8,1.3,48.1,1.3,61.7,14.1z M11.7,15.6l21.2,21.2L11.7,64.3
		C-1.2,50.6-1.2,29.3,11.7,15.6z M13.2,65.8l27.5-21.3l21.2,21.2C48.2,78.7,26.9,78.7,13.2,65.8z"/>
</g>
</svg>
