<?xml version="1.0" encoding="utf-8"?>
<!-- Generator: Adobe Illustrator 18.0.0, SVG Export Plug-In . SVG Version: 6.00 Build 0)  -->
<!DOCTYPE svg PUBLIC "-//W3C//DTD SVG 1.1//EN" "http://www.w3.org/Graphics/SVG/1.1/DTD/svg11.dtd">
<svg version="1.1" id="图层_1" xmlns="http://www.w3.org/2000/svg" xmlns:xlink="http://www.w3.org/1999/xlink" x="0px" y="0px"
	 viewBox="0 0 75 80" enable-background="new 0 0 75 80" xml:space="preserve">
<g>
	<path fill="#2A3033" d="M70.6,46l-1.4-13.2l0,0l0,0l-0.6,0l-0.6,0l0,0l0,0L66.6,46h-4.8l-1.4-13.2l0,0l0,0l-0.6,0l-0.6,0l0,0l0,0
		L57.9,46h-7.2V32.6v-1.7v-0.3h-5.2V19.8v-2v0H33.4L32.2,8l0,0l0,0l-1.1,0L30,8l0,0l0,0l-1.2,9.8h-27v0H1.1V46h-1.2v34H75V46H70.6z
		 M68.6,38.4l0.8,7.6h-1.6L68.6,38.4z M59.9,38.4l0.8,7.6h-1.6L59.9,38.4z M48.7,46H18.8l13.4-13.4h16.5V46z M10.9,26.7h0.8
		c1.7,0.2,3.1,1.7,3.1,3.5V46h-7V30.1C7.8,28.3,9.2,26.9,10.9,26.7z M43.5,19.8v10.8h-8.6l-1.3-10.8H43.5z M31.1,17.2l1.6,13.4h-1.4
		v0l-2.1,2.1L31.1,17.2z M26.7,35.3l-9.8,9.8v-15c0-2.7-2-5-4.6-5.4v-5h16.3L26.7,35.3z M3.1,19.8h7.1v5c-2.5,0.5-4.4,2.7-4.4,5.4
		V46H3.1V19.8z M73,78H1.9V48H73V78z"/>
	<path fill="#2A3033" d="M25.7,67h-7v7h7V67z M23.7,72h-3v-3h3V72z"/>
	<path fill="#2A3033" d="M37,67h-7v7h7V67z M35,72h-3v-3h3V72z"/>
	<path fill="#2A3033" d="M48,67h-7v7h7V67z M46,72h-3v-3h3V72z"/>
	<path fill="#2A3033" d="M59,67h-7v7h7V67z M57,72h-3v-3h3V72z"/>
	<path fill="#2A3033" d="M31.3,6.5c1.4,0,2.5-1.1,2.5-2.5c0-1.4-1.1-2.5-2.5-2.5c-1.4,0-2.5,1.1-2.5,2.5C28.8,5.4,29.9,6.5,31.3,6.5
		z M31.3,2.9c0.6,0,1.2,0.5,1.2,1.2s-0.5,1.2-1.2,1.2S30.1,4.7,30.1,4S30.6,2.9,31.3,2.9z"/>
	<path fill="#2A3033" d="M38.8,5c1.4,0,2.5-1.1,2.5-2.5c0-1.4-1.1-2.5-2.5-2.5c-1.4,0-2.5,1.1-2.5,2.5C36.3,3.9,37.5,5,38.8,5z
		 M38.8,1.3c0.6,0,1.2,0.5,1.2,1.2s-0.5,1.2-1.2,1.2s-1.2-0.5-1.2-1.2S38.2,1.3,38.8,1.3z"/>
	<path fill="#2A3033" d="M60,32.3c0.8,0,1.5-0.6,1.5-1.5c0-0.8-0.6-1.5-1.5-1.5s-1.5,0.6-1.5,1.5C58.5,31.6,59.2,32.3,60,32.3z
		 M60,30.2c0.4,0,0.7,0.3,0.7,0.7c0,0.4-0.3,0.7-0.7,0.7c-0.4,0-0.7-0.3-0.7-0.7C59.3,30.5,59.6,30.2,60,30.2z"/>
	<path fill="#2A3033" d="M62.6,28.9c0.8,0,1.5-0.6,1.5-1.5S63.4,26,62.6,26s-1.5,0.6-1.5,1.5S61.8,28.9,62.6,28.9z M62.6,26.8
		c0.4,0,0.7,0.3,0.7,0.7c0,0.4-0.3,0.7-0.7,0.7c-0.4,0-0.7-0.3-0.7-0.7C62,27.1,62.3,26.8,62.6,26.8z"/>
	<path fill="#2A3033" d="M69.2,31.3c0.8,0,1.5-0.6,1.5-1.5s-0.6-1.5-1.5-1.5c-0.8,0-1.5,0.6-1.5,1.5S68.4,31.3,69.2,31.3z
		 M69.2,29.2c0.4,0,0.7,0.3,0.7,0.7c0,0.4-0.3,0.7-0.7,0.7s-0.7-0.3-0.7-0.7C68.5,29.5,68.8,29.2,69.2,29.2z"/>
</g>
</svg>
