<?xml version="1.0" encoding="utf-8"?>
<!-- Generator: Adobe Illustrator 18.0.0, SVG Export Plug-In . SVG Version: 6.00 Build 0)  -->
<!DOCTYPE svg PUBLIC "-//W3C//DTD SVG 1.1//EN" "http://www.w3.org/Graphics/SVG/1.1/DTD/svg11.dtd">
<svg version="1.1" id="图层_1" xmlns="http://www.w3.org/2000/svg" xmlns:xlink="http://www.w3.org/1999/xlink" x="0px" y="0px"
	 viewBox="0 0 50 50" enable-background="new 0 0 50 50" xml:space="preserve">
<path fill="#323632" d="M0,0v50h46V0H0z M3,3.3h40v3.3H3V3.3z M3,9.8h40v3.3H3V9.8z M3,16.4h40v3.3h-0.1h-2.3H3V16.4z"/>
<rect x="2.9" y="3.2" fill="#4B994D" width="47.1" height="3.3"/>
<rect x="2.9" y="9.8" fill="#4B994D" width="47.1" height="3.3"/>
<rect x="2.9" y="16.4" fill="#4B994D" width="47.1" height="3.3"/>
</svg>
