<?xml version="1.0" encoding="utf-8"?>
<!-- Generator: Adobe Illustrator 18.0.0, SVG Export Plug-In . SVG Version: 6.00 Build 0)  -->
<!DOCTYPE svg PUBLIC "-//W3C//DTD SVG 1.1//EN" "http://www.w3.org/Graphics/SVG/1.1/DTD/svg11.dtd">
<svg version="1.1" id="图层_1" xmlns="http://www.w3.org/2000/svg" xmlns:xlink="http://www.w3.org/1999/xlink" x="0px" y="0px"
	 viewBox="0 0 90 80" enable-background="new 0 0 90 80" xml:space="preserve">
<g>
	<path fill="#090909" d="M84,45.1l-1.4-13.1l0,0l0,0l-0.6,0l-0.6,0l0,0l0,0l-1.4,13.1h-4.8l-1.4-13.1l0,0l0,0l-0.6,0l-0.6,0l0,0l0,0
		l-1.4,13.1h-4.4V31.8v-2h-2h-7.2V18.9v-2h-2h-9.1l-1.2-9.8l0,0l0,0l-1.1,0l-1.1,0l0,0l0,0L42,16.9H26.1h-2H13h-2h0v6.9
		c-2.5,0.5-4.4,2.7-4.4,5.4v15.9H3v34h84v-34H84z M82,37.6l0.8,7.5h-1.6L82,37.6z M73.3,37.6l0.8,7.5h-1.6L73.3,37.6z M64.9,45.1
		H32.1l13.4-13.3h19.5V45.1z M24.7,25.7h0.8c1.7,0.2,3.1,1.7,3.1,3.5v15.9h-7V29.2C21.7,27.4,23,25.9,24.7,25.7z M55.8,18.9v10.8
		h-7.6l-1.3-10.8H55.8z M44.3,16.4l1.6,13.4h-1.4v0l-2.1,2.1L44.3,16.4z M41.8,18.9l-1.9,15.5l-9.2,9.2V29.2c0-2.7-2-5-4.6-5.4v-4.9
		H41.8z M24.1,18.9v4.9c-2.5,0.5-4.4,2.7-4.4,5.4v15.9h-2.1V29.2c0-2.7-2-5-4.6-5.4v-4.9H24.1z M8.6,29.2c0-1.8,1.3-3.2,3.1-3.5h0.8
		c1.7,0.2,3.1,1.7,3.1,3.5v15.9h-7V29.2z M85,77.1H5v-30h80V77.1z"/>
	<path fill="#090909" d="M31.8,66.1h-7v7h7V66.1z M29.8,71.1h-3v-3h3V71.1z"/>
	<path fill="#090909" d="M43.1,66.1h-7v7h7V66.1z M41.1,71.1h-3v-3h3V71.1z"/>
	<path fill="#090909" d="M54.1,66.1h-7v7h7V66.1z M52.1,71.1h-3v-3h3V71.1z"/>
	<path fill="#090909" d="M65.1,66.1h-7v7h7V66.1z M63.1,71.1h-3v-3h3V71.1z"/>
	<path fill="#090909" d="M44.5,6.7c1.4,0,2.5-1.1,2.5-2.5c0-1.4-1.1-2.5-2.5-2.5c-1.4,0-2.5,1.1-2.5,2.5C42,5.6,43.1,6.7,44.5,6.7z
		 M44.5,3c0.6,0,1.2,0.5,1.2,1.2s-0.5,1.2-1.2,1.2s-1.2-0.5-1.2-1.2S43.9,3,44.5,3z"/>
	<path fill="#090909" d="M52.1,5.9c1.4,0,2.5-1.1,2.5-2.5c0-1.4-1.1-2.5-2.5-2.5c-1.4,0-2.5,1.1-2.5,2.5C49.6,4.8,50.7,5.9,52.1,5.9
		z M52.1,2.2c0.6,0,1.2,0.5,1.2,1.2s-0.5,1.2-1.2,1.2S50.9,4,50.9,3.4S51.4,2.2,52.1,2.2z"/>
	<path fill="#090909" d="M73.4,31.5c0.8,0,1.5-0.6,1.5-1.5c0-0.8-0.6-1.5-1.5-1.5c-0.8,0-1.5,0.6-1.5,1.5
		C72,30.9,72.6,31.5,73.4,31.5z M73.4,29.4c0.4,0,0.7,0.3,0.7,0.7s-0.3,0.7-0.7,0.7c-0.4,0-0.7-0.3-0.7-0.7S73.1,29.4,73.4,29.4z"/>
	<path fill="#090909" d="M76.1,28.1c0.8,0,1.5-0.6,1.5-1.5c0-0.8-0.6-1.5-1.5-1.5c-0.8,0-1.5,0.6-1.5,1.5
		C74.6,27.5,75.3,28.1,76.1,28.1z M76.1,26c0.4,0,0.7,0.3,0.7,0.7c0,0.4-0.3,0.7-0.7,0.7s-0.7-0.3-0.7-0.7
		C75.4,26.3,75.7,26,76.1,26z"/>
	<path fill="#090909" d="M82.6,30.5c0.8,0,1.5-0.6,1.5-1.5c0-0.8-0.6-1.5-1.5-1.5s-1.5,0.6-1.5,1.5C81.2,29.9,81.8,30.5,82.6,30.5z
		 M82.6,28.4c0.4,0,0.7,0.3,0.7,0.7c0,0.4-0.3,0.7-0.7,0.7c-0.4,0-0.7-0.3-0.7-0.7C81.9,28.7,82.2,28.4,82.6,28.4z"/>
</g>
</svg>
