<?xml version="1.0" encoding="utf-8"?>
<!-- Generator: Adobe Illustrator 18.0.0, SVG Export Plug-In . SVG Version: 6.00 Build 0)  -->
<!DOCTYPE svg PUBLIC "-//W3C//DTD SVG 1.1//EN" "http://www.w3.org/Graphics/SVG/1.1/DTD/svg11.dtd">
<svg version="1.1" id="图层_1" xmlns="http://www.w3.org/2000/svg" xmlns:xlink="http://www.w3.org/1999/xlink" x="0px" y="0px"
	 viewBox="0 0 75 80" enable-background="new 0 0 75 80" xml:space="preserve">
<g>
	<path fill="#2A3033" d="M52.1,26.2c-0.6,0-1,0.4-1,1v26.4c0,0.6,0.4,1,1,1s1-0.4,1-1V27.2C53.1,26.7,52.7,26.2,52.1,26.2z"/>
	<path fill="#2A3033" d="M74,34.5h-7.7v-5.2H74c0.6,0,1-0.4,1-1c0-0.6-0.4-1-1-1h-7.7V14.8c0-1.1-0.9-2-2-2h-2.6V1c0-0.6-0.4-1-1-1
		s-1,0.4-1,1v11.8h-5.2V1c0-0.6-0.4-1-1-1c-0.6,0-1,0.4-1,1v11.8h-5.2V1c0-0.6-0.4-1-1-1c-0.6,0-1,0.4-1,1v11.8H40V1
		c0-0.6-0.4-1-1-1c-0.6,0-1,0.4-1,1v11.8h-5.2V1c0-0.6-0.4-1-1-1c-0.6,0-1,0.4-1,1v11.8h-5.2V1c0-0.6-0.4-1-1-1c-0.6,0-1,0.4-1,1
		v11.8H11.6c-1.1,0-2,0.9-2,2v1.6H1c-0.6,0-1,0.4-1,1s0.4,1,1,1h8.7v5.2H1c-0.6,0-1,0.4-1,1c0,0.6,0.4,1,1,1h8.7v5.2H1
		c-0.6,0-1,0.4-1,1c0,0.6,0.4,1,1,1h8.7v5.2H1c-0.6,0-1,0.4-1,1c0,0.6,0.4,1,1,1h8.7v5.2H1c-0.6,0-1,0.4-1,1c0,0.6,0.4,1,1,1h8.7
		v5.2H1c-0.6,0-1,0.4-1,1s0.4,1,1,1h8.7v13c0,1.1,0.9,2,2,2h1.9V79c0,0.6,0.4,1,1,1c0.6,0,1-0.4,1-1v-9.4h5.2V79c0,0.6,0.4,1,1,1
		c0.6,0,1-0.4,1-1v-9.4H28V79c0,0.6,0.4,1,1,1c0.6,0,1-0.4,1-1v-9.4h5.2V79c0,0.6,0.4,1,1,1c0.6,0,1-0.4,1-1v-9.4h5.2V79
		c0,0.6,0.4,1,1,1c0.6,0,1-0.4,1-1v-9.4h5.2V79c0,0.6,0.4,1,1,1s1-0.4,1-1v-9.4h12.6c1.1,0,2-0.9,2-2v-2.2H74c0.6,0,1-0.4,1-1
		c0-0.6-0.4-1-1-1h-7.7v-5.2H74c0.6,0,1-0.4,1-1s-0.4-1-1-1h-7.7V51H74c0.6,0,1-0.4,1-1c0-0.6-0.4-1-1-1h-7.7v-5.2H74
		c0.6,0,1-0.4,1-1c0-0.6-0.4-1-1-1h-7.7v-5.2H74c0.6,0,1-0.4,1-1v0C75,35,74.6,34.5,74,34.5z M64.3,66.4c0,0.6-0.4,1-1,1H12.7
		c-0.6,0-1-0.4-1-1V15.7c0-0.6,0.4-1,1-1h50.7c0.6,0,1,0.4,1,1V66.4z"/>
	<path fill="#2A3033" d="M59.8,18.2H17.1c-1.1,0-2,0.9-2,2v42.7c0,1.1,0.9,2,2,2h42.7c1.1,0,2-0.9,2-2V20.2
		C61.8,19,60.9,18.2,59.8,18.2z M59.8,61.7c0,0.6-0.4,1-1,1H18.2c-0.6,0-1-0.4-1-1V21c0-0.6,0.4-1,1-1h40.7c0.6,0,1,0.4,1,1V61.7z"
		/>
</g>
</svg>
