<?xml version="1.0" encoding="utf-8"?>
<!-- Generator: Adobe Illustrator 18.0.0, SVG Export Plug-In . SVG Version: 6.00 Build 0)  -->
<!DOCTYPE svg PUBLIC "-//W3C//DTD SVG 1.1//EN" "http://www.w3.org/Graphics/SVG/1.1/DTD/svg11.dtd">
<svg version="1.1" id="图层_1" xmlns="http://www.w3.org/2000/svg" xmlns:xlink="http://www.w3.org/1999/xlink" x="0px" y="0px"
	 viewBox="0 0 75 80" enable-background="new 0 0 75 80" xml:space="preserve">
<g>
	<path fill="#2A3033" d="M58.1,0.2h-2h-2H21.9h-2h-2h-2v2v76v2h2h2h2h32.3h2h2h2v-2v-76v-2H58.1z M54.1,2.2v2H21.9v-2H54.1z
		 M54.1,14.2H21.9v-2h32.3V14.2z M54.1,24.2H21.9v-2h32.3V24.2z M54.1,48.2H21.9v-16h32.3V48.2z M54.1,58.2H21.9v-2h32.3V58.2z
		 M54.1,68.2H21.9v-2h32.3V68.2z M54.1,70.2v4H21.9v-4H54.1z M21.9,64.2v-4h32.3v4H21.9z M21.9,54.2v-4h32.3v4H21.9z M21.9,30.2v-4
		h32.3v4H21.9z M21.9,20.2v-4h32.3v4H21.9z M21.9,10.2v-4h32.3v4H21.9z M17.9,78.2v-76h2v2v2v4v2v2v2v4v2v2v2v4v2v16v2v4v2v2v2v4v2
		v2v2v4v2v2H17.9z M21.9,78.2v-2h32.3v2H21.9z M58.1,78.2h-2v-2v-2v-4v-2v-2v-2v-4v-2v-2v-2v-4v-2v-16v-2v-4v-2v-2v-2v-4v-2v-2v-2
		v-4v-2v-2h2V78.2z"/>
	<circle fill="#2A3033" cx="24.9" cy="8.3" r="1"/>
	<circle fill="#2A3033" cx="28.9" cy="8.3" r="1"/>
	<circle fill="#2A3033" cx="32.8" cy="8.3" r="1"/>
	<circle fill="#2A3033" cx="24.9" cy="18.3" r="1"/>
	<circle fill="#2A3033" cx="28.9" cy="18.3" r="1"/>
	<circle fill="#2A3033" cx="32.8" cy="18.3" r="1"/>
	<circle fill="#2A3033" cx="24.9" cy="28.3" r="1"/>
	<circle fill="#2A3033" cx="28.9" cy="28.3" r="1"/>
	<circle fill="#2A3033" cx="32.8" cy="28.3" r="1"/>
	<circle fill="#2A3033" cx="24.9" cy="52.3" r="1"/>
	<circle fill="#2A3033" cx="28.9" cy="52.3" r="1"/>
	<circle fill="#2A3033" cx="32.8" cy="52.3" r="1"/>
	<circle fill="#2A3033" cx="24.9" cy="62.3" r="1"/>
	<circle fill="#2A3033" cx="28.9" cy="62.3" r="1"/>
	<circle fill="#2A3033" cx="32.8" cy="62.3" r="1"/>
	<circle fill="#2A3033" cx="24.9" cy="72.3" r="1"/>
	<circle fill="#2A3033" cx="28.9" cy="72.3" r="1"/>
	<circle fill="#2A3033" cx="32.8" cy="72.3" r="1"/>
	<path fill="#2A3033" d="M50.6,43.2c0.6,0,1-0.4,1-1v-4c0-0.6-0.4-1-1-1c-0.6,0-1,0.4-1,1v4C49.6,42.7,50.1,43.2,50.6,43.2z"/>
</g>
</svg>
