<?xml version="1.0" encoding="utf-8"?>
<!-- Generator: Adobe Illustrator 18.0.0, SVG Export Plug-In . SVG Version: 6.00 Build 0)  -->
<!DOCTYPE svg PUBLIC "-//W3C//DTD SVG 1.1//EN" "http://www.w3.org/Graphics/SVG/1.1/DTD/svg11.dtd">
<svg version="1.1" id="图层_1" xmlns="http://www.w3.org/2000/svg" xmlns:xlink="http://www.w3.org/1999/xlink" x="0px" y="0px"
	 viewBox="0 0 155.8 24" enable-background="new 0 0 155.8 24" xml:space="preserve">
<g>
	<path fill="#7199b3" d="M17.6,9.2c-0.7-3.5-4.3-6.1-8.7-6.1C4,3.1,0,6.3,0,10.3c0,2.4,1.4,4.5,3.6,5.8c0,0,0,0,0,0l-0.4,1.8
		c0,0.2-0.1,0.5,0.1,0.6c0.2,0.1,0.4,0,0.7-0.2L5.2,17c0,0,0,0,0-0.1c1.1,0.4,2.3,0.6,3.6,0.6c0,0,0.1,0,0.1,0
		c-0.1-0.4-0.1-0.7-0.1-1.1C8.8,12.4,12.7,9.2,17.6,9.2z M11.6,7.1c0.6,0,1,0.5,1,1c0,0.6-0.5,1-1,1s-1-0.5-1-1
		C10.6,7.6,11.1,7.1,11.6,7.1z M5.7,9.1c-0.6,0-1-0.5-1-1c0-0.6,0.5-1,1-1s1,0.5,1,1C6.7,8.7,6.2,9.1,5.7,9.1z"/>
	<path fill="#7199b3" d="M24,15.9c0-3.2-3.2-5.8-7.1-5.8s-7.1,2.6-7.1,5.8s3.2,5.8,7.1,5.8c1,0,2-0.2,2.9-0.5l1,1.1
		c0.2,0.2,0.5,0.3,0.6,0.2c0.3-0.1,0.2-0.4,0.1-0.6l-0.3-1.4C23,19.5,24,17.8,24,15.9z M14.8,15.2c-0.6,0-1.1-0.5-1.1-1.1
		c0-0.6,0.5-1.1,1.1-1.1c0.6,0,1.1,0.5,1.1,1.1C15.9,14.7,15.4,15.2,14.8,15.2z M19.4,15.2c-0.6,0-1.1-0.5-1.1-1.1
		c0-0.6,0.5-1.1,1.1-1.1c0.6,0,1.1,0.5,1.1,1.1C20.5,14.7,20,15.2,19.4,15.2z"/>
</g>
<path fill="#7199b3" d="M62.1,16.3c-1-0.1-2,0.4-2.4,1.5c-0.1,0.3-0.2,0.5-0.6,0.5c-0.5,0-1,0.2-1.5,0.3c-0.2,0-0.4,0.1-0.6,0.1
	c-0.8,0-0.9-0.1-1.1-0.8c-0.2-0.6-0.5-1-0.9-1.2c0,0.1,0.1,0.1,0.1,0.2c0.4,0.5,0.7,1.1,0.5,1.8c-0.2,0.7-0.2,1.5-0.1,2.2
	c0,0.3-0.1,0.4-0.4,0.5c-1.6,0.3-3.1,0.2-4.7,0c-0.4-0.1-0.4-0.3-0.4-0.6c-0.1-0.9,0-1.7,0.2-2.6c0.1-0.6,0.3-1.3,0.6-1.9
	c0.3-0.7,0.9-1.3,1.6-1.6c0.5-0.3,1.1-0.6,1.6-0.9c1.4-0.9,2.2-2.2,2.5-3.8c0.4-2.1-0.1-4-1.7-5.6c-0.2-0.2-0.3-0.3-0.5-0.5
	c-0.1-0.1-0.2-0.1-0.1-0.2c0-0.1,0.2-0.1,0.3-0.1c0.3,0,0.6-0.1,0.9-0.1c2.2-0.2,4.4,0,6.4,1c2.2,1.1,3.7,2.9,4.4,5.2
	c0.8,2.5,0.8,5-0.3,7.4c-0.1,0.2-0.1,0.5-0.3,0.5c-0.2,0-0.2-0.3-0.2-0.5c-0.2-1-0.1-2,0.1-3.1c0-0.1,0-0.2,0.1-0.3c0,0,0,0,0-0.1
	c-0.5,0.7-0.8,1.4-0.9,2.3c-0.1,0.6,0,1.1,0.1,1.7c0.1,0.4,0,0.8,0,1.2c-0.1,0.7,0,1.3,0.1,2c0,0.5,0,0.6-0.5,0.7
	c-0.4,0.1-0.7,0.1-1.1,0.1c-1,0-1.9,0-2.9-0.1c-0.5-0.1-0.5-0.1-0.5-0.6c0-0.5,0-1-0.2-1.4c-0.2-0.5-0.1-0.9,0.1-1.4
	c0.4-0.8,0.9-1.4,1.8-1.6C61.8,16.3,62,16.3,62.1,16.3z"/>
<path fill="#7199b3" d="M50.4,3.5c0.5,0,1,0,1.5,0.1c1,0.1,1.7,0.7,2.4,1.3c1.5,1.6,1.9,3.4,1.2,5.4c-0.4,1.2-1.3,2-2.4,2.7
	c-0.6,0.4-1.3,0.7-1.9,1.1c-0.7,0.5-1.2,1.2-1.4,2.1c-0.2,0.6-0.3,1.3-0.4,1.9c-0.3,1.6-1.4,2.8-3,3c-1.1,0.1-2.1,0-3.1-0.6
	c-0.3-0.2-0.4-0.4-0.4-0.7c0-0.2,0.1-0.5,0.2-0.7c0.1-0.3,0.4-0.4,0.7-0.4c1,0.1,1.6-0.7,1.4-1.7c-0.1-0.5-0.4-1-0.7-1.4
	c-0.7-1.2-1.2-2.4-1.4-3.7c-0.4-2.1-0.1-4,1.2-5.8c1.1-1.4,2.6-2.2,4.4-2.5C49.1,3.6,49.7,3.5,50.4,3.5z M44,14.4
	c0,0.2,0.1,0.3,0.2,0.4c0.4,0.4,0.8,0.5,1.4,0.4c0.6-0.1,1.1-0.3,1.5-0.8c0.1-0.2,0.1-0.8,0-0.8c-0.2-0.1-0.3,0.2-0.4,0.3
	c0,0-0.1,0.1-0.1,0.1c-0.8,0.8-1.4,0.9-2.3,0.4C44.1,14.4,44.1,14.4,44,14.4z M47,9.9c0.4,0,0.8-0.4,0.8-0.8c0-0.4-0.4-0.8-0.8-0.8
	c-0.4,0-0.8,0.4-0.8,0.8C46.2,9.6,46.6,9.9,47,9.9z"/>
<g>
	<path fill="#7199b3" d="M98.5,0.1C92,0.1,86.6,5.4,86.6,12c0,6.6,5.3,11.9,11.9,11.9c6.6,0,11.9-5.3,11.9-11.9
		C110.4,5.4,105.1,0.1,98.5,0.1z M97.6,5.3c0.1,0.1,0.5,0.3,0.7,0.7c0.2,0.5,0.3,0.8,0.2,0.9c-0.1,0.1-0.8,0.3-0.8,0.3
		S97.5,5.4,97.6,5.3z M95.1,9.4c0,0,1.3-0.1,2.1-1.3C97.7,7.3,98.8,7,98.8,7s0-2.1,0.4-2.4c1.8,0.6,2.8,2.5,3.2,4.1
		c1.2-0.2,2.7,2.5,2.7,3.3c-1.7-0.2-2.7-0.9-4.4-0.5c-0.5,0.4-1.5,0-1.9,0.2C94.9,12.3,95.1,9.4,95.1,9.4z M90.3,13.5
		c0.8-1.5,2.3-2.1,4.2-1.3c1.1,0.4,2,1.1,3,1.6c0.7,0.4,1.6,0.6,2.3,0.9c-1.1,1.5-4.2,2.1-5.8,1C92.8,14.9,91.5,14.2,90.3,13.5z
		 M101.9,17.2c-0.4,1.5-1,1.6-1.6,1.7c-3-0.1-4.3-1.8-4.3-1.8s1.3-0.2,2.7-0.9c2.5-0.8,2.8-2.7,2.8-2.7S102.4,14.8,101.9,17.2z
		 M102.3,18.3c0,0,0.5-1.1,0.4-3.4c0-2-1.6-2.7-1.6-2.7s0.4-0.5,2.7,0c1.5,0.4,1.5,1.4,1.6,2C105.4,17.2,102.3,18.3,102.3,18.3z"/>
	<path fill="#7199b3" d="M99.1,9.4c0.4-0.2,0.6-0.6,0.8-0.9c-0.5-0.1-0.9,0-1.4,0.2c-0.4,0.2-0.6,0.6-0.8,0.9
		C98.2,9.7,98.7,9.7,99.1,9.4z"/>
</g>
<path fill="#7199b3" d="M151.8,0h-16c-2.2,0-4,1.8-4,4v16c0,2.2,1.8,4,4,4h16c2.2,0,4-1.8,4-4V4C155.8,1.8,154,0,151.8,0z
	 M144.2,12.3c-0.5,0.4-1.1,0.3-1.7,0.2c-0.5-0.2-0.9-0.5-1.4-0.8c-0.5-0.4-0.9-0.8-1.3-1.3c-0.6-0.8-1.2-1.5-1.8-2.2
	c0,0-0.1-0.1-0.1-0.2c0.7,0.3,1.3,0.6,1.9,1.1c0.6,0.4,1.1,1,1.6,1.5c-0.3-0.4-0.7-0.8-1-1.1c-0.6-0.6-1.3-1-2-1.3
	c-0.4-0.2-0.8-0.4-1.1-0.6c-0.6-0.5-1.2-0.9-1.9-1.4c0,0-0.1-0.1-0.1-0.1c0.1,0,0.1,0,0.2,0.1c1,0.5,2.1,0.9,3.1,1.4
	c0.7,0.3,1.3,0.7,2,1c0.5,0.2,1.1,0.3,1.6,0.3c0.3,0,0.6-0.1,0.9-0.1c0.4,0,0.8,0,1.2,0c0.1,0,0.2,0,0.2-0.1
	c0.2-0.2,0.4-0.3,0.6-0.4c0.9-0.5,1.8-0.8,2.8-1c0.1,0,0.3-0.1,0.4-0.1c0,0,0,0,0.1,0c-0.1,0.2-0.2,0.3-0.3,0.5
	c-0.3,0.6-0.3,1.3,0,1.9c0.2,0.5,0.6,0.9,0.9,1.4c0.5,0.8,0.8,1.6,0.9,2.5c0-0.1,0-0.1-0.1-0.2c-0.3-0.9-0.8-1.7-1.5-2.4
	c-0.3-0.3-0.7-0.5-1.1-0.7c-0.3-0.1-0.6-0.3-0.8-0.4c-0.4-0.3-0.8-0.4-1.3-0.5c-0.7-0.2-1.4-0.2-2.1-0.2c-0.3,0-0.6,0-0.8,0
	c-0.2,0-0.4,0-0.5,0.2c-0.1,0.2,0.1,0.3,0.1,0.4c0.2,0.3,0.4,0.5,0.6,0.7c0,0,0.1,0.1,0.1,0.1c0.1,0,0.2,0.1,0.3,0
	c0.1-0.1,0-0.2,0-0.3c0,0,0,0,0,0c0-0.1-0.1-0.3,0.1-0.4c0.1-0.1,0.3,0,0.4,0.1c0,0,0,0.1,0.1,0.1c0.1,0.3,0.1,0.6,0,1
	c0,0.2-0.2,0.3-0.3,0.3c-0.1,0-0.2,0.1-0.3,0.1c-0.1,0-0.1,0.1-0.1,0.1c0,0.1,0.1,0.1,0.1,0.2c0.1,0,0.1,0.1,0.2,0.1
	c0.2,0,0.4,0,0.6,0c0.2-0.1,0.4-0.1,0.5-0.4c0-0.2,0.1-0.3,0.3-0.4c0.2-0.1,0.2-0.3,0.1-0.5c0-0.1-0.1-0.2-0.1-0.4
	c0-0.1,0-0.2,0.2-0.2c0.4,0,0.7,0.5,0.6,0.9c0,0.2-0.2,0.2-0.3,0.3c-0.2,0.1-0.3,0.2-0.3,0.4C144.7,11.9,144.4,12.1,144.2,12.3z
	 M150,15.7c-0.1,1.1-0.5,2-1.1,2.9c-0.1,0.1-0.1,0.2-0.1,0.3c0,0.6-0.1,1.1-0.2,1.7c0,0.1,0,0.1-0.1,0.2c0-0.1-0.1-0.3-0.1-0.4
	c-0.1-0.2-0.2-0.5-0.3-0.7c-0.2-0.5-0.6-0.7-1-0.9c-0.4-0.2-0.9-0.4-1.3-0.6c0.3,0,0.6,0,0.9,0c0.6,0,1.1,0,1.7,0.1
	c0.1,0,0.2,0,0.2-0.1c-0.1-1.2-0.3-2.3-1.2-3.2c-0.4-0.4-1-0.7-1.5-1c-0.3-0.2-0.6-0.3-0.9-0.4c-0.4-0.2-0.5-0.4-0.5-0.7
	c0-0.3,0.3-0.6,0.7-0.6c0.3,0,0.6,0,0.9,0.1c1.5,0.4,2.3,1.3,2.8,2.7c0.1,0.4,0.2,0.8,0.3,1.3c0.4-0.6,0.4-2.3,0-3.3
	c-0.4-1-1-2-1.9-2.7c0.2,0.1,0.5,0.2,0.6,0.4c1.1,0.9,1.8,2.1,2.1,3.4C150.1,14.7,150,15.2,150,15.7z"/>
</svg>
