<?xml version="1.0" encoding="utf-8"?>
<!-- Generator: Adobe Illustrator 18.0.0, SVG Export Plug-In . SVG Version: 6.00 Build 0)  -->
<!DOCTYPE svg PUBLIC "-//W3C//DTD SVG 1.1//EN" "http://www.w3.org/Graphics/SVG/1.1/DTD/svg11.dtd">
<svg version="1.1" id="图层_1" xmlns="http://www.w3.org/2000/svg" xmlns:xlink="http://www.w3.org/1999/xlink" x="0px" y="0px"
	 viewBox="0 0 75 80" enable-background="new 0 0 75 80" xml:space="preserve">
<g>
	<path fill="#2A3033" d="M73.4,26.6h-2v-5l1.8-1l0,0h0v-2H42.7L38.3,0.4h0h-2h0l-4.4,18.2H1.3v2h0l0,0l2,1.1v4.9h-2
		c-0.6,0-1,0.4-1,1v0c0,0.6,0.4,1,1,1h5.9c0.6,0,1-0.4,1-1v0c0-0.6-0.4-1-1-1h-2v-3.7l22.5,12.5L17,79.6h0.7H19h36.6h1.4h0.6
		l-0.7-2.7l0,0l0,0L46.8,35.3l22.7-12.6v3.9h-2c-0.6,0-1,0.4-1,1v0c0,0.6,0.4,1,1,1h5.9c0.6,0,1-0.4,1-1v0
		C74.4,27.1,74,26.6,73.4,26.6z M37.3,4.5l3.4,14.1h-6.8L37.3,4.5z M37.2,38.3l-7.2-4l3.3-13.7h7.8l3.3,13.7L37.2,38.3z M5.4,20.6
		h26l-3.1,12.8L5.4,20.6z M49.6,58.5l-11.9,7l-12-7.1l12-7L49.6,58.5z M39.6,50.3l7.8-4.6l2.6,10.7L39.6,50.3z M19.9,76l3.9-16.2
		l11.8,6.9L19.9,76z M37.6,67.9l16.6,9.7H21.1L37.6,67.9z M24.6,56.8l2.8-11.4l8.3,4.9L24.6,56.8z M39.6,66.7l11.2-6.6l3.7,15.4
		L39.6,66.7z M46.8,43.7l-9.2,5.4l-9.8-5.8l1.7-7.1l7.7,4.3l7.8-4.3L46.8,43.7z M43.2,20.6h25.9L46.3,33.3L43.2,20.6z"/>
	<path fill="#2A3033" d="M73.4,29.6h-5.9c-0.6,0-1,0.4-1,1v0c0,0.6,0.4,1,1,1h5.9c0.6,0,1-0.4,1-1v0C74.4,30.1,74,29.6,73.4,29.6z"
		/>
	<path fill="#2A3033" d="M73.4,32.6h-5.9c-0.6,0-1,0.4-1,1v0c0,0.6,0.4,1,1,1h5.9c0.6,0,1-0.4,1-1v0C74.4,33.1,74,32.6,73.4,32.6z"
		/>
	<path fill="#2A3033" d="M7.3,29.6H1.3c-0.6,0-1,0.4-1,1v0c0,0.6,0.4,1,1,1h5.9c0.6,0,1-0.4,1-1v0C8.3,30,7.8,29.6,7.3,29.6z"/>
	<path fill="#2A3033" d="M7.3,32.6H1.3c-0.6,0-1,0.4-1,1v0c0,0.6,0.4,1,1,1h5.9c0.6,0,1-0.4,1-1v0C8.3,33,7.8,32.6,7.3,32.6z"/>
</g>
</svg>
