<?xml version="1.0" encoding="utf-8"?>
<!-- Generator: Adobe Illustrator 18.0.0, SVG Export Plug-In . SVG Version: 6.00 Build 0)  -->
<!DOCTYPE svg PUBLIC "-//W3C//DTD SVG 1.1//EN" "http://www.w3.org/Graphics/SVG/1.1/DTD/svg11.dtd">
<svg version="1.1" id="图层_1" xmlns="http://www.w3.org/2000/svg" xmlns:xlink="http://www.w3.org/1999/xlink" x="0px" y="0px"
	 viewBox="0 0 75 80" enable-background="new 0 0 75 80" xml:space="preserve">
<g>
	<path fill="#2A3033" d="M38.9,73.1L38.9,73.1h-2.1h-7.1h-2.1h0v0.2L27.1,80h0.5h1.6h8.2h1.6h0.5l-0.5-6.7V73.1z M29.3,77.9l0.2-2.8
		h7.4l0.2,2.8H29.3z"/>
	<path fill="#2A3033" d="M32.1,32.7l-4.5,39.2h0.5h1.6h6.9h1.2h0.9l-4.5-39.2H32.1z M29.9,69.8l3.2-26.2l3.3,26.2H29.9z"/>
	<path fill="#2A3033" d="M58.4,73.7L58.4,73.7h-1.9h-6.4h-1.9h0v0.2L47.7,80h0.5h1.4H57h1.4h0.5l-0.5-6.1V73.7z M49.8,78.1l0.2-2.5
		h6.7l0.2,2.5H49.8z"/>
	<path fill="#2A3033" d="M48.7,72.7h1.4h6.5h1.1h0.8l-4.3-35.5h-1.9l-4.1,35.5H48.7z M53.2,47.1l3.1,23.7h-6.1L53.2,47.1z"/>
	<path fill="#2A3033" d="M60,33.6l-3.6,1.2c0.4-0.6,0.6-1.3,0.6-2c0-1-0.4-1.9-1-2.6l0.1-0.2l7.7-21.6L63,7.9l-0.5-0.3l-11.1,19
		l2.5,2.4c-0.2,0-0.5-0.1-0.7-0.1c-1.9,0-3.5,1.5-3.7,3.4l-4.1,0.8l0.6,1.1l2.7-0.5l-0.9,2.8h-0.3l1,1.7h0.3l1-3.9
		c0.6,1.3,1.9,2.3,3.5,2.3c0.6,0,1.1-0.1,1.6-0.4l14.3,15.5l0.7-0.5l0.8-0.5L60,33.6z M53.3,26.4l8.3-15L55.1,28L53.3,26.4z
		 M53.2,35.1c-1.3,0-2.4-1.1-2.4-2.4c0-1.3,1.1-2.4,2.4-2.4c1.3,0,2.4,1.1,2.4,2.4C55.6,34,54.5,35.1,53.2,35.1z M56.8,36.1l2.5-0.8
		l8.3,12.6L56.8,36.1z"/>
	<polygon fill="#2A3033" points="35,37.2 35.2,38.3 39.5,38.3 38.8,37.2 	"/>
	<polygon fill="#2A3033" points="31.3,37.2 28.1,37.2 31.4,36.4 31.5,35.2 25.8,36.5 25.8,37.2 25.8,37.5 25.8,38.1 31.2,38.3 	"/>
	<polygon fill="#2A3033" points="36.4,34.5 34.7,34.7 34.8,35.8 36.9,35.5 	"/>
	<path fill="#2A3033" d="M29.3,29.4c0.6,1.5,2.1,2.5,3.8,2.5c0.6,0,1.2-0.2,1.8-0.4l14.7,16.1l0.1-1.4L37.1,31.6l2.9-1.1l9.8,14.9
		l0.2-1.7l-9.4-15l-4,1.3c0.4-0.7,0.7-1.4,0.7-2.3c0-1.1-0.4-2.1-1.1-2.8l0.1-0.2l8.5-23.9l-0.9-0.5L43.3,0L31.1,21l2.8,2.7
		c-0.2,0-0.5-0.1-0.8-0.1c-2.2,0-3.9,1.6-4.1,3.7l-0.1,0L4,32v0.7V33v0.7h24.3L29.3,29.4z M33.2,20.6l8.6-15.3l-6.4,17.5L33.2,20.6z
		 M33.2,25.2c1.4,0,2.6,1.2,2.6,2.6c0,1.4-1.2,2.6-2.6,2.6s-2.6-1.2-2.6-2.6C30.5,26.3,31.7,25.2,33.2,25.2z M27,32.3L7.5,32.5
		l20.2-3.4L27,32.3z"/>
	<polygon fill="#2A3033" points="49.7,39.9 50.3,41.4 51.2,41.4 51.3,40.6 50.5,40.6 51.3,40.4 51.4,39.5 49.7,39.8 	"/>
</g>
</svg>
